{
  "success": true,
  "page": 1,
  "limit": 20,
  "total": 7806,
  "total_pages": 391,
  "recipes": [
    {
      "diet_type": "paleo",
      "recipe_name": "Swiss Paleo\u2019s Homemade Italian & Chorizo Sausage",
      "cuisine_type": "italian",
      "protein_g": 1273.61,
      "carbs_g": 83.34,
      "fat_g": 1608.54
    },
    {
      "diet_type": "dash",
      "recipe_name": "Salmon Mousse",
      "cuisine_type": "nordic",
      "protein_g": 1239.47,
      "carbs_g": 22.4,
      "fat_g": 983.36
    },
    {
      "diet_type": "dash",
      "recipe_name": "Homemade Turkey Alphabet Soup",
      "cuisine_type": "american",
      "protein_g": 1190.35,
      "carbs_g": 49.13,
      "fat_g": 297.45
    },
    {
      "diet_type": "paleo",
      "recipe_name": "Turkey Soup",
      "cuisine_type": "american",
      "protein_g": 1142.58,
      "carbs_g": 693.64,
      "fat_g": 287.86
    },
    {
      "diet_type": "keto",
      "recipe_name": "Sara Louise's Keto Smoked Holiday Turkey",
      "cuisine_type": "american",
      "protein_g": 1092.0,
      "carbs_g": 49.28,
      "fat_g": 313.81
    },
    {
      "diet_type": "dash",
      "recipe_name": "Barbecue Chicken Legs",
      "cuisine_type": "mediterranean",
      "protein_g": 1017.25,
      "carbs_g": 241.93,
      "fat_g": 1002.07
    },
    {
      "diet_type": "mediterranean",
      "recipe_name": "Fava Bean Salad with Mountain Ham and Mint",
      "cuisine_type": "american",
      "protein_g": 970.31,
      "carbs_g": 823.34,
      "fat_g": 322.84
    },
    {
      "diet_type": "dash",
      "recipe_name": "12th Man Hot Wings",
      "cuisine_type": "american",
      "protein_g": 807.03,
      "carbs_g": 49.17,
      "fat_g": 649.49
    },
    {
      "diet_type": "keto",
      "recipe_name": "Mayo Free Deviled Eggs (Paleo, Whole30 + Keto)",
      "cuisine_type": "italian",
      "protein_g": 766.99,
      "carbs_g": 41.29,
      "fat_g": 287.59
    },
    {
      "diet_type": "keto",
      "recipe_name": "Low Carb Beef and Cheddar Cauliflower Bake, THM S meal, Keto too",
      "cuisine_type": "british",
      "protein_g": 710.81,
      "carbs_g": 112.56,
      "fat_g": 1154.61
    },
    {
      "diet_type": "paleo",
      "recipe_name": "Orange and Five-Spice Roasted Chicken Legs | Keto, Paleo",
      "cuisine_type": "mediterranean",
      "protein_g": 677.22,
      "carbs_g": 41.71,
      "fat_g": 686.9
    },
    {
      "diet_type": "keto",
      "recipe_name": "Orange and Five-Spice Roasted Chicken Legs | Keto, Paleo",
      "cuisine_type": "mediterranean",
      "protein_g": 677.22,
      "carbs_g": 41.71,
      "fat_g": 686.9
    },
    {
      "diet_type": "keto",
      "recipe_name": "Low Carb Salmon Cakes (Keto, Grain Free)",
      "cuisine_type": "nordic",
      "protein_g": 656.95,
      "carbs_g": 13.25,
      "fat_g": 501.19
    },
    {
      "diet_type": "mediterranean",
      "recipe_name": "Poached Salt Cod with Vegetables and Garlic Mayonnaise",
      "cuisine_type": "mediterranean",
      "protein_g": 656.65,
      "carbs_g": 315.52,
      "fat_g": 73.73
    },
    {
      "diet_type": "mediterranean",
      "recipe_name": "Mediterranean Pizza",
      "cuisine_type": "italian",
      "protein_g": 628.29,
      "carbs_g": 3405.55,
      "fat_g": 333.76
    },
    {
      "diet_type": "mediterranean",
      "recipe_name": "Orange and Cumin Leg of Lamb with Roasted Tomatoes and Garlic Recipe",
      "cuisine_type": "mediterranean",
      "protein_g": 607.03,
      "carbs_g": 109.27,
      "fat_g": 489.93
    },
    {
      "diet_type": "keto",
      "recipe_name": "Keto Maple Glazed Ham",
      "cuisine_type": "american",
      "protein_g": 603.05,
      "carbs_g": 211.03,
      "fat_g": 312.79
    },
    {
      "diet_type": "paleo",
      "recipe_name": "Vietnamese Pho Pressure Cooker (Noodle Soup)",
      "cuisine_type": "south east asian",
      "protein_g": 602.91,
      "carbs_g": 274.87,
      "fat_g": 400.01
    },
    {
      "diet_type": "keto",
      "recipe_name": "Low Carb Taco Soup for the Instant Pot or Slow Cooker, Keto, THM too",
      "cuisine_type": "french",
      "protein_g": 581.42,
      "carbs_g": 102.78,
      "fat_g": 677.8
    },
    {
      "diet_type": "keto",
      "recipe_name": "Glazed Ham | Keto, No Added Sugar",
      "cuisine_type": "american",
      "protein_g": 570.28,
      "carbs_g": 162.39,
      "fat_g": 297.48
    }
  ]
}